
   0    0   14508.77    4749.80 8835838.00
   0    1   17779.05    4625.17 10827440.00
   0    2   15184.44    4726.28 9247327.00
   0    3   18104.18    4613.93 11025443.00
   0    4   17330.92    4643.38 10554532.00
   0    5   17222.08    4647.51 10488249.00
   0    6   13716.09    4777.97 8353099.00
   0    7   17733.41    4624.51 10799648.00
   0    8   17914.12    4627.57 10909698.00
   0    9   17431.87    4640.85 10616011.00
   0   10   18389.58    4606.17 11199253.00
   0   11   17905.67    4624.35 10904550.00
   0   12   18429.58    4606.10 11223612.00
   0   13   18401.27    4607.06 11206371.00
   0   14   18426.67    4605.11 11221843.00
   0   15   15326.83    4725.86 9334040.00