
   0    0    7427.12    5007.71 4560251.00
   0    1   11544.11    4856.07 7088084.00
   0    2    7753.63    4995.28 4760726.00
   0    3   11705.44    4850.45 7187142.00
   0    4    9816.78    4918.80 6027504.00
   0    5    9866.99    4914.19 6058333.00
   0    6    6484.68    5042.31 3981592.00
   0    7   11363.19    4859.44 6977001.00
   0    8   11415.61    4864.60 7009183.00
   0    9   11204.99    4868.57 6879864.00
   0   10   14392.21    4756.61 8836819.00
   0   11   11886.36    4841.25 7298226.00
   0   12   13517.23    4785.22 8299582.00
   0   13   12976.04    4805.92 7967291.00
   0   14   15651.58    4715.65 9610071.00
   0   15    9340.57    4937.77 5735109.00