
   0    0      46.62     155.49   28627.00
   0    1      85.46     288.32   52471.00
   0    2      91.09     298.28   55932.00
   0    3     186.03     612.14  114225.00
   0    4      93.59     309.18   57463.00
   0    5      56.03     185.73   34402.00
   0    6      51.22     169.40   31449.00
   0    7      49.32     165.65   30283.00
   0    8      54.71     183.41   33592.00
   0    9      48.94     162.63   30047.00
   0   10      57.46     190.73   35278.00
   0   11     323.15    1081.02  198414.00
   0   12     274.57     910.95  168589.00
   0   13     141.02     469.79   86584.00
   0   14     183.84     612.88  112875.00
   0   15      21.80      72.33   13386.00