
   0    0    1402.89    4754.04  861375.00
   0    1    1353.95    4581.92  831327.00
   0    2     887.17    3086.75  544724.00
   0    3    1404.37      77.33  991952.00
   0    4     943.95    3154.53  579587.00
   0    5    1243.61    4157.76  763574.00
   0    6     998.21    3436.69  612900.00
   0    7    1058.70    3555.12  650040.00
   0    8    1170.29    3998.51  718558.00
   0    9     731.23    2501.24  448976.00
   0   10    1284.18    4380.68  788484.00
   0   11    1244.10    4278.28  763880.00
   0   12     954.71    3233.45  586193.00
   0   13    1112.31    3773.15  682956.00
   0   14    1268.85    4335.88  779072.00
   0   15     959.79    3262.52  589310.00