
   0    0     152.48     506.05   92860.00
   0    1     134.86     439.50   82130.00
   0    2      93.51     320.66   56950.00
   0    3     191.97     632.67  116909.00
   0    4      93.92     312.67   57200.00
   0    5     134.03     438.71   81622.00
   0    6     111.08     358.87   67649.00
   0    7     115.14     392.53   70119.00
   0    8     134.06     441.75   81642.00
   0    9      82.12     273.54   50009.00
   0   10     155.55     532.26   94727.00
   0   11     157.54     535.26   95939.00
   0   12     135.44     446.21   82485.00
   0   13     133.91     455.46   81550.00
   0   14     161.46     544.52   98330.00
   0   15     113.42     385.24   69074.00